X:562
T:Fuchs, du hast die Gans gestohlen
S:https://musescore.com/user/15027881/scores/4083611
F:562_fuchs-du-hast-die-gans-gestohlen
%%scale 0.83
%%pagewidth 21.01cm
%%leftmargin 1.00cm
%%rightmargin 1.00cm
%%score 1 2 3
L:1/4
Q:1/4=120   
M:4/4
I:linebreak $
K:C 
%
V:1 treble nm="Flauta" snm="Fl."
V:3 bass nm="Guitarra clásica" snm="Guit."
V:1
 [P:Intro]ED ED | C4 | [P:Strophe]CD EF | GG GG | AF cA | G2 z2 | [P:~]AF cA | G2 z2 |$ [P: ~]GF FF | FE EE | ED ED | CE G2 | %12
 [P:~] GF FF | FE EE | ED ED | C4 |] %16
V:2 treble
C4 | G,4 | G,4 | C4 |  F4 | C2 C2 |  F4 | C2 C2 | 
D4 | C4 | C4 | G,4 | D4 | C4 | C4 | z4|]  
%
V:3
L:1/2
 B,, [F,G,] | [C,E,G,] z | C, [E,G,] | C, [E,G,] | C, [F,A,] | C, [E,G,] | C, [F,A,] | C, [E,G,] |$ %8
 B,,/G,/ F,/G,/ | C,/G,/ E,/G,/ | B,,/G,/ F,/G,/ | C,/G,/ E,/G,/ | B,, [F,G,] | C, [E,G,] | %14
 B,, [F,G,] | [C,E,G,]2 |] %16
%
W:Einführen
W:
W:* Stückaufbau 
W:~~ * Intro
W:~~ * Strophe
W:~~ * Refrain 
W:* Pause spielen Takt 6, 8
W:* Zäsur vor Takt 7, 9, 13 
W:
W:
W:Einführen
W:
W:* Begleitung 
W:~~Ganze u. halbe Noten
W:* Takt 6,8
W:~~ Begleitung extra
W:~~ Melodie hat Pause
W:* Verteile li. und re. Hand
%
%

%%%%zupfnoter.config

{
  "produce"      : [1, 3],
  "restposition" : {
    "default"     : "previous",
    "repeatstart" : "next",
    "repeatend"   : "default"
  },
  "extract"      : {
    "0" : {
      "title"        : "Bearbeitungsansicht",
      "filenamepart" : "-X",
      "voices"       : [1, 2, 3, 4],
      "flowlines"    : [1, 3],
      "repeatsigns"  : {
        "voices" : [1, 2, 3, 4],
        "left"   : {"style": "large"},
        "right"  : {"style": "large"}
      },
      "layoutlines"  : [99],
      "barnumbers"   : {
        "voices"   : [1, 2, 3],
        "pos"      : [6, -4],
        "autopos"  : true,
        "apbase"   : [1, 0.30],
        "style"    : "small_bold",
        "apanchor" : "center",
        "prefix"   : ""
      },
      "countnotes"   : {
        "voices"   : [1, 2, 3, 4],
        "pos"      : [3, -2],
        "autopos"  : true,
        "apbase"   : [1, 0],
        "style"    : "smaller",
        "apanchor" : "center"
      },
      "legend"       : {"pos": [410, 8], "spos": [361, 30], "align": "l"},
      "lyrics"       : {
        "1" : {"verses": [], "pos": [20, 20], "style": "large"},
        "2" : {"verses": [], "pos": [20, 20], "style": "large"}
      },
      "notes"        : {
        "T01_number"              : {
          "pos"   : [410, 17],
          "text"  : "XXX-{{number}}",
          "style" : "bold",
          "align" : "l"
        },
        "T01_number_extract"      : {
          "pos"   : [411, 17],
          "text"  : "{{extract_filename}}",
          "style" : "bold"
        },
        "T02_copyright_music"     : {"pos": [325, 280], "text": "", "style": "small"},
        "T03_copyright_harpnotes" : {
          "pos"   : [325, 284],
          "text"  : "© {{current_year}} Notenbild: ",
          "style" : "small"
        },
        "T04_to_order"            : {
          "pos"   : [381, 275],
          "text"  : "Privatkopie\n",
          "style" : "small"
        },
        "T05_printed_extracts"    : {
          "pos"   : [410, 22],
          "text"  : "{{printed_extracts}}",
          "style" : "smaller",
          "align" : "l"
        },
        "T06_legend"              : {
          "pos"   : [360, 30],
          "text"  : "{{extract_title}}\n{{composer}}\nTakt: {{meter}} ({{tempo}})\nTonart: {{key}}",
          "style" : "small"
        },
        "T99_do_not_copy"         : {
          "pos"   : [380, 284],
          "text"  : "Bitte nicht kopieren",
          "style" : "small_bold"
        }
      },
      "tuplets"      : {"text": "- {{tuplet}} -", "style": "small"},
      "printer"      : {"show_border": false},
      "stringnames"  : {"vpos": [4], "marks": {"vpos": [290]}},
      "notebound"    : {
        "annotation" : {
          "v_2" : {
            "6144" : {"pos": [-33, -3], "style": "small"},
            "9216" : {"pos": [-32, -1], "style": "small"}
          }
        }
      }
    },
    "1" : {
      "filenamepart" : "-A",
      "lyrics"       : {"1": {"verses": [3, 4]}},
      "notes"        : {
        "T01_number_extract" : {"text": "{{extract_filename}}"}
      },
      "layout"       : {
        "limit_a3"     : false,
        "instrument"   : "25-strings-g-g",
        "PITCH_OFFSET" : -43,
        "X_OFFSET"     : 2.80,
        "X_SPACING"    : 11.50
      },
      "printer"      : {
        "a3_offset" : [-5, 0],
        "a4_offset" : [-5, 0],
        "a4_pages"  : [1, 2]
      },
      "stringnames"  : {
        "text"  : "~ ~ ~ ~ ~ ~ ~ ~ ~ ~ ~ ~ G G# A A# B C C# D D# E F F# G G# A A# B C C# D D# E F F# G",
        "marks" : {"hpos": [55, 79]}
      },
      "notebound"    : {
        "annotation" : {"v_2": {}},
        "countnote"  : {
          "v_2" : {
            "t_16896" : {"align": "r"},
            "t_3072"  : {"align": "r"}
          }
        }
      }
    },
    "2" : {
      "filenamepart" : "-B",
      "notes"        : {
        "T01_number_extract" : {"text": "{{extract_filename}}"}
      },
      "layout"       : {
        "limit_a3"     : true,
        "instrument"   : "37-strings-g-g",
        "PITCH_OFFSET" : -43,
        "X_OFFSET"     : 2.80,
        "X_SPACING"    : 11.50
      },
      "printer"      : {
        "a3_offset" : [0, 0],
        "a4_offset" : [-5, 0],
        "a4_pages"  : [0, 1, 2]
      },
      "stringnames"  : {
        "text"  : "G G# A A# B C C# D D# E F F# G G# A A# B C C# D D# E F F# G G# A A# B C C# D D# E F F# G",
        "marks" : {"hpos": [43, 79]}
      }
    },
    "3" : {
      "filenamepart" : "-M",
      "barnumbers"   : {"voices": [1, 2, 3]},
      "lyrics"       : {"1": {"verses": [1, 2], "style": "large"}},
      "notes"        : {
        "T01_number_extract" : {"text": "{{extract_filename}}"}
      },
      "layout"       : {
        "limit_a3"     : false,
        "instrument"   : "25-strings-g-g",
        "PITCH_OFFSET" : -43,
        "X_OFFSET"     : 2.80,
        "X_SPACING"    : 11.50
      },
      "printer"      : {
        "a3_offset" : [-5, 0],
        "a4_offset" : [-5, 0],
        "a4_pages"  : [1, 2]
      },
      "stringnames"  : {
        "text"  : "~ ~ ~ ~ ~ ~ ~ ~ ~ ~ ~ ~ G G# A A# B C C# D D# E F F# G G# A A# B C C# D D# E F F# G",
        "marks" : {"hpos": [55, 79]}
      }
    },
    "4" : {
      "filenamepart" : "A2",
      "notes"        : {
        "T01_number_extract" : {
          "pos"   : [411, 17],
          "text"  : "{{extract_filename}}",
          "style" : "bold"
        }
      }
    },
    "5" : {
      "filenamepart" : "B2",
      "notes"        : {
        "T01_number_extract" : {"text": "{{extract_filename}}"}
      }
    }
  },
  "$schema"      : "https://zupfnoter.weichel21.de/schema/zupfnoter-config_1.0.json",
  "$version"     : "{{version}}",
  "template"     : {
    "title"    : "Zupfnoter Standardvorlage",
    "filebase" : "9999_Zupfnoter_standard-template"
  }
}